Phishing URL Detection — Hypothesis & EDA
…
# Count features with |skewness| > 2
n_heavy_skew <- sum(skew_df$abs_skew > 2)
cat("\nFeatures with |skewness| > 2:", n_heavy_skew, "of",
    length(continuous_features), "\n")

Features with |skewness| > 2: 21 of 31 

cat("These are:\n")

These are:

skew_df %>% filter(abs_skew > 2) %>% select(feature, skewness, family) %>% print()

# A tibble: 21 × 3
   feature            skewness family  
   <chr>                 <dbl> <chr>   
 1 NoOfCSS               464.  Behavior
 2 NoOfObfuscatedChar    205.  Lexical 
 3 NoOfJS                140.  Behavior
 4 NoOfEqualsInURL       115.  Lexical 
 5 NoOfEmptyRef          107.  Behavior
 6 NoOfAmpersandInURL    107.  Lexical 
 7 NoOfiFrame             97.7 Behavior
 8 NoOfDegitsInURL        94.9 Lexical 
 9 NoOfPopup              85.0 Behavior
10 NoOfExternalRef        65.9 Behavior
# ℹ 11 more rows
…
